"","ApplicationReceivedMonth","MonthsOnHousingRegister","ApplicationListCategory","FamilyType","Apps_per_Category","Apps_per_famtype"
"1",2003-01-01,209,"High","11. Other",181,48
"2",2004-09-01,189,"Moderate","11. Other",150,48
"3",2006-12-01,162,"Moderate","04. Single Parent, >2 Children",150,76
"4",2007-04-01,158,"Moderate","09. Single Person Over 55",150,160
"5",2007-09-01,153,"Very High","01. Single Person",519,384
"6",2007-10-01,152,"Moderate","09. Single Person Over 55",150,160
"7",2008-02-01,148,"Moderate","04. Single Parent, >2 Children",150,76
"8",2008-03-01,147,"High","01. Single Person",181,384
"9",2008-04-01,146,"Lower","09. Single Person Over 55",19,160
"10",2008-08-01,142,"Moderate","09. Single Person Over 55",150,160
"11",2008-10-01,140,"High","11. Other",181,48
"12",2009-02-01,136,"High","02. Single Parent, 1 Child",181,77
"13",2009-06-01,132,"Very High","01. Single Person",519,384
"14",2009-09-01,129,"Very High","01. Single Person",519,384
"15",2009-12-01,126,"Very High","01. Single Person",519,384
"16",2010-02-01,124,"High","01. Single Person",181,384
"17",2010-03-01,123,"Very High","03. Single Parent, 2 Children",519,99
"18",2011-02-01,112,"High","09. Single Person Over 55",181,160
"19",2011-06-01,108,"Moderate","02. Single Parent, 1 Child",150,77
"20",2011-08-01,106,"Moderate","09. Single Person Over 55",150,160
"21",2011-08-01,106,"Moderate","01. Single Person",150,384
"22",2011-10-01,104,"Moderate","11. Other",150,48
"23",2011-10-01,103,"Very High","04. Single Parent, >2 Children",519,76
"24",2011-11-01,103,"High","11. Other",181,48
"25",2011-11-01,103,"Very High","01. Single Person",519,384
"26",2012-02-01,100,"Moderate","11. Other",150,48
"27",2012-06-01,96,"Very High","01. Single Person",519,384
"28",2012-07-01,95,"Moderate","09. Single Person Over 55",150,160
"29",2012-10-01,91,"High","01. Single Person",181,384
"30",2012-11-01,91,"High","02. Single Parent, 1 Child",181,77
"31",2013-02-01,88,"High","01. Single Person",181,384
"32",2013-04-01,86,"Moderate","02. Single Parent, 1 Child",150,77
"33",2013-05-01,85,"Very High","01. Single Person",519,384
"34",2013-05-01,85,"Moderate","09. Single Person Over 55",150,160
"35",2013-08-01,82,"High","11. Other",181,48
"36",2013-09-01,81,"Moderate","09. Single Person Over 55",150,160
"37",2013-11-01,79,"Moderate","01. Single Person",150,384
"38",2013-11-01,79,"High","01. Single Person",181,384
"39",2013-12-01,78,"Moderate","09. Single Person Over 55",150,160
"40",2013-12-01,78,"High","01. Single Person",181,384
"41",2014-01-01,77,"Lower","03. Single Parent, 2 Children",19,99
"42",2014-02-01,76,"Very High","03. Single Parent, 2 Children",519,99
"43",2014-02-01,76,"Very High","01. Single Person",519,384
"44",2014-03-01,75,"High","01. Single Person",181,384
"45",2014-03-01,75,"Very High","01. Single Person",519,384
"46",2014-06-01,72,"High","03. Single Parent, 2 Children",181,99
"47",2014-07-01,71,"Very High","01. Single Person",519,384
"48",2014-07-01,71,"Moderate","11. Other",150,48
"49",2014-10-01,68,"Moderate","03. Single Parent, 2 Children",150,99
"50",2014-10-01,68,"Very High","11. Other",519,48
"51",2015-01-01,65,"High","03. Single Parent, 2 Children",181,99
"52",2015-01-01,65,"Very High","04. Single Parent, >2 Children",519,76
"53",2015-02-01,64,"Moderate","09. Single Person Over 55",150,160
"54",2015-03-01,63,"High","04. Single Parent, >2 Children",181,76
"55",2015-03-01,63,"Lower","09. Single Person Over 55",19,160
"56",2015-05-01,61,"Moderate","03. Single Parent, 2 Children",150,99
"57",2015-05-01,61,"Very High","01. Single Person",519,384
"58",2015-05-01,61,"High","01. Single Person",181,384
"59",2015-06-01,60,"High","03. Single Parent, 2 Children",181,99
"60",2015-06-01,60,"Moderate","10. Couple Only Over 55",150,7
"61",2015-06-01,60,"Moderate","01. Single Person",150,384
"62",2015-09-01,57,"Moderate","09. Single Person Over 55",150,160
"63",2015-09-01,57,"Very High","01. Single Person",519,384
"64",2015-10-01,56,"Very High","01. Single Person",519,384
"65",2015-10-01,56,"High","04. Single Parent, >2 Children",181,76
"66",2015-10-01,56,"Moderate","01. Single Person",150,384
"67",2015-11-01,55,"High","01. Single Person",181,384
"68",2015-11-01,55,"High","01. Single Person",181,384
"69",2015-12-01,54,"High","01. Single Person",181,384
"70",2015-12-01,54,"Very High","04. Single Parent, >2 Children",519,76
"71",2015-12-01,54,"High","01. Single Person",181,384
"72",2016-01-01,53,"High","01. Single Person",181,384
"73",2016-02-01,52,"High","08. Couple, >2 Children",181,5
"74",2016-02-01,52,"Moderate","11. Other",150,48
"75",2016-02-01,52,"Moderate","09. Single Person Over 55",150,160
"76",2016-03-01,51,"Very High","01. Single Person",519,384
"77",2016-03-01,51,"Very High","01. Single Person",519,384
"78",2016-03-01,51,"Very High","01. Single Person",519,384
"79",2016-04-01,50,"Very High","01. Single Person",519,384
"80",2016-04-01,50,"Moderate","09. Single Person Over 55",150,160
"81",2016-04-01,50,"High","04. Single Parent, >2 Children",181,76
"82",2016-04-01,50,"Moderate","01. Single Person",150,384
"83",2016-05-01,49,"Moderate","09. Single Person Over 55",150,160
"84",2016-05-01,49,"Very High","01. Single Person",519,384
"85",2016-05-01,49,"Very High","01. Single Person",519,384
"86",2016-06-01,48,"Moderate","01. Single Person",150,384
"87",2016-06-01,48,"Very High","01. Single Person",519,384
"88",2016-06-01,48,"Very High","01. Single Person",519,384
"89",2016-07-01,47,"High","11. Other",181,48
"90",2016-07-01,47,"High","11. Other",181,48
"91",2016-07-01,47,"Very High","01. Single Person",519,384
"92",2016-07-01,47,"Very High","01. Single Person",519,384
"93",2016-07-01,47,"Very High","01. Single Person",519,384
"94",2016-08-01,46,"Moderate","11. Other",150,48
"95",2016-08-01,45,"High","01. Single Person",181,384
"96",2016-08-01,46,"Very High","01. Single Person",519,384
"97",2016-09-01,45,"High","09. Single Person Over 55",181,160
"98",2016-09-01,45,"Very High","01. Single Person",519,384
"99",2016-09-01,45,"Moderate","04. Single Parent, >2 Children",150,76
"100",2016-09-01,44,"High","11. Other",181,48
"101",2016-09-01,45,"Moderate","04. Single Parent, >2 Children",150,76
"102",2016-09-01,45,"Very High","01. Single Person",519,384
"103",2016-10-01,44,"High","09. Single Person Over 55",181,160
"104",2016-10-01,44,"Very High","10. Couple Only Over 55",519,7
"105",2016-10-01,44,"Moderate","11. Other",150,48
"106",2016-10-01,44,"Very High","11. Other",519,48
"107",2016-11-01,43,"Very High","02. Single Parent, 1 Child",519,77
"108",2016-11-01,43,"Moderate","11. Other",150,48
"109",2016-11-01,43,"High","01. Single Person",181,384
"110",2016-11-01,43,"Very High","01. Single Person",519,384
"111",2016-11-01,43,"Moderate","09. Single Person Over 55",150,160
"112",2017-01-01,41,"High","01. Single Person",181,384
"113",2017-01-01,40,"Very High","01. Single Person",519,384
"114",2017-01-01,41,"Lower","02. Single Parent, 1 Child",19,77
"115",2017-02-01,40,"High","01. Single Person",181,384
"116",2017-02-01,40,"Very High","11. Other",519,48
"117",2017-02-01,40,"Moderate","09. Single Person Over 55",150,160
"118",2017-02-01,40,"High","01. Single Person",181,384
"119",2017-02-01,40,"Very High","01. Single Person",519,384
"120",2017-02-01,40,"High","03. Single Parent, 2 Children",181,99
"121",2017-02-01,40,"Very High","01. Single Person",519,384
"122",2017-03-01,39,"Moderate","11. Other",150,48
"123",2017-03-01,39,"Moderate","09. Single Person Over 55",150,160
"124",2017-03-01,39,"High","03. Single Parent, 2 Children",181,99
"125",2017-03-01,39,"High","01. Single Person",181,384
"126",2017-03-01,39,"High","01. Single Person",181,384
"127",2017-03-01,39,"Moderate","02. Single Parent, 1 Child",150,77
"128",2017-03-01,39,"High","09. Single Person Over 55",181,160
"129",2017-03-01,39,"High","03. Single Parent, 2 Children",181,99
"130",2017-03-01,39,"High","01. Single Person",181,384
"131",2017-03-01,39,"Moderate","02. Single Parent, 1 Child",150,77
"132",2017-03-01,39,"Very High","01. Single Person",519,384
"133",2017-03-01,39,"High","02. Single Parent, 1 Child",181,77
"134",2017-03-01,39,"Moderate","02. Single Parent, 1 Child",150,77
"135",2017-03-01,39,"Moderate","09. Single Person Over 55",150,160
"136",2017-04-01,38,"High","02. Single Parent, 1 Child",181,77
"137",2017-04-01,38,"Moderate","09. Single Person Over 55",150,160
"138",2017-04-01,38,"High","04. Single Parent, >2 Children",181,76
"139",2017-04-01,38,"Very High","03. Single Parent, 2 Children",519,99
"140",2017-04-01,38,"Moderate","09. Single Person Over 55",150,160
"141",2017-04-01,38,"Moderate","09. Single Person Over 55",150,160
"142",2017-04-01,38,"Lower","03. Single Parent, 2 Children",19,99
"143",2017-05-01,37,"Very High","03. Single Parent, 2 Children",519,99
"144",2017-05-01,37,"High","04. Single Parent, >2 Children",181,76
"145",2017-05-01,37,"High","07. Couple, 2 Children",181,6
"146",2017-05-01,37,"High","03. Single Parent, 2 Children",181,99
"147",2017-05-01,37,"High","09. Single Person Over 55",181,160
"148",2017-05-01,37,"High","01. Single Person",181,384
"149",2017-05-01,37,"Very High","01. Single Person",519,384
"150",2017-05-01,37,"Very High","02. Single Parent, 1 Child",519,77
"151",2017-05-01,37,"Lower","02. Single Parent, 1 Child",19,77
"152",2017-05-01,37,"Very High","01. Single Person",519,384
"153",2017-05-01,37,"Very High","01. Single Person",519,384
"154",2017-05-01,37,"High","03. Single Parent, 2 Children",181,99
"155",2017-06-01,36,"Moderate","11. Other",150,48
"156",2017-06-01,36,"Moderate","09. Single Person Over 55",150,160
"157",2017-06-01,36,"Moderate","09. Single Person Over 55",150,160
"158",2017-06-01,36,"High","01. Single Person",181,384
"159",2017-06-01,36,"Very High","01. Single Person",519,384
"160",2017-06-01,36,"Moderate","10. Couple Only Over 55",150,7
"161",2017-06-01,36,"High","01. Single Person",181,384
"162",2017-07-01,35,"Moderate","11. Other",150,48
"163",2017-07-01,35,"Moderate","09. Single Person Over 55",150,160
"164",2017-07-01,35,"Lower","09. Single Person Over 55",19,160
"165",2017-07-01,35,"Very High","01. Single Person",519,384
"166",2017-07-01,35,"Moderate","09. Single Person Over 55",150,160
"167",2017-07-01,35,"Moderate","09. Single Person Over 55",150,160
"168",2017-07-01,35,"High","11. Other",181,48
"169",2017-07-01,35,"Very High","04. Single Parent, >2 Children",519,76
"170",2017-07-01,35,"Lower","11. Other",19,48
"171",2017-07-01,35,"Very High","09. Single Person Over 55",519,160
"172",2017-08-01,34,"High","02. Single Parent, 1 Child",181,77
"173",2017-08-01,34,"Very High","09. Single Person Over 55",519,160
"174",2017-08-01,34,"Moderate","04. Single Parent, >2 Children",150,76
"175",2017-08-01,33,"Very High","01. Single Person",519,384
"176",2017-08-01,34,"High","04. Single Parent, >2 Children",181,76
"177",2017-08-01,33,"Very High","03. Single Parent, 2 Children",519,99
"178",2017-08-01,34,"High","11. Other",181,48
"179",2017-08-01,34,"Very High","01. Single Person",519,384
"180",2017-08-01,34,"High","11. Other",181,48
"181",2017-08-01,34,"Very High","01. Single Person",519,384
"182",2017-08-01,34,"Very High","07. Couple, 2 Children",519,6
"183",2017-09-01,33,"High","11. Other",181,48
"184",2017-09-01,33,"Very High","01. Single Person",519,384
"185",2017-09-01,33,"High","04. Single Parent, >2 Children",181,76
"186",2017-09-01,33,"Very High","04. Single Parent, >2 Children",519,76
"187",2017-09-01,33,"Moderate","02. Single Parent, 1 Child",150,77
"188",2017-10-01,32,"Very High","09. Single Person Over 55",519,160
"189",2017-10-01,32,"Moderate","02. Single Parent, 1 Child",150,77
"190",2017-10-01,32,"High","02. Single Parent, 1 Child",181,77
"191",2017-10-01,32,"Moderate","02. Single Parent, 1 Child",150,77
"192",2017-10-01,32,"Very High","01. Single Person",519,384
"193",2017-10-01,32,"Moderate","03. Single Parent, 2 Children",150,99
"194",2017-10-01,32,"Lower","01. Single Person",19,384
"195",2017-10-01,32,"High","01. Single Person",181,384
"196",2017-11-01,31,"Moderate","09. Single Person Over 55",150,160
"197",2017-11-01,31,"Moderate","09. Single Person Over 55",150,160
"198",2017-11-01,31,"Moderate","07. Couple, 2 Children",150,6
"199",2017-11-01,31,"High","04. Single Parent, >2 Children",181,76
"200",2017-11-01,31,"High","01. Single Person",181,384
"201",2017-11-01,31,"Moderate","09. Single Person Over 55",150,160
"202",2017-11-01,31,"High","09. Single Person Over 55",181,160
"203",2017-11-01,31,"Very High","01. Single Person",519,384
"204",2017-11-01,31,"Very High","01. Single Person",519,384
"205",2017-11-01,31,"Moderate","11. Other",150,48
"206",2017-11-01,31,"High","01. Single Person",181,384
"207",2017-11-01,31,"Very High","01. Single Person",519,384
"208",2017-11-01,31,"Moderate","09. Single Person Over 55",150,160
"209",2017-11-01,31,"High","01. Single Person",181,384
"210",2017-11-01,31,"Moderate","04. Single Parent, >2 Children",150,76
"211",2017-11-01,31,"High","01. Single Person",181,384
"212",2017-11-01,31,"Very High","01. Single Person",519,384
"213",2017-12-01,30,"Very High","02. Single Parent, 1 Child",519,77
"214",2017-12-01,30,"Very High","01. Single Person",519,384
"215",2017-12-01,30,"High","11. Other",181,48
"216",2018-01-01,29,"Moderate","02. Single Parent, 1 Child",150,77
"217",2018-01-01,29,"High","03. Single Parent, 2 Children",181,99
"218",2018-01-01,29,"High","09. Single Person Over 55",181,160
"219",2018-01-01,29,"Very High","01. Single Person",519,384
"220",2018-01-01,29,"Very High","01. Single Person",519,384
"221",2018-01-01,29,"High","03. Single Parent, 2 Children",181,99
"222",2018-01-01,29,"High","09. Single Person Over 55",181,160
"223",2018-01-01,29,"High","03. Single Parent, 2 Children",181,99
"224",2018-01-01,29,"Very High","01. Single Person",519,384
"225",2018-01-01,29,"Very High","03. Single Parent, 2 Children",519,99
"226",2018-01-01,29,"Moderate","03. Single Parent, 2 Children",150,99
"227",2018-01-01,28,"Moderate","03. Single Parent, 2 Children",150,99
"228",2018-01-01,28,"Very High","01. Single Person",519,384
"229",2018-01-01,29,"Very High","01. Single Person",519,384
"230",2018-01-01,29,"Very High","01. Single Person",519,384
"231",2018-01-01,29,"High","09. Single Person Over 55",181,160
"232",2018-01-01,29,"Very High","04. Single Parent, >2 Children",519,76
"233",2018-01-01,29,"High","01. Single Person",181,384
"234",2018-02-01,28,"Moderate","01. Single Person",150,384
"235",2018-02-01,28,"Very High","02. Single Parent, 1 Child",519,77
"236",2018-02-01,28,"High","03. Single Parent, 2 Children",181,99
"237",2018-02-01,28,"Moderate","04. Single Parent, >2 Children",150,76
"238",2018-02-01,28,"Very High","09. Single Person Over 55",519,160
"239",2018-02-01,28,"Very High","09. Single Person Over 55",519,160
"240",2018-02-01,28,"Moderate","09. Single Person Over 55",150,160
"241",2018-02-01,28,"High","02. Single Parent, 1 Child",181,77
"242",2018-02-01,28,"High","01. Single Person",181,384
"243",2018-02-01,28,"High","03. Single Parent, 2 Children",181,99
"244",2018-02-01,28,"High","03. Single Parent, 2 Children",181,99
"245",2018-02-01,28,"Very High","03. Single Parent, 2 Children",519,99
"246",2018-02-01,28,"Very High","01. Single Person",519,384
"247",2018-02-01,28,"Very High","01. Single Person",519,384
"248",2018-02-01,28,"Very High","01. Single Person",519,384
"249",2018-02-01,28,"Very High","04. Single Parent, >2 Children",519,76
"250",2018-02-01,28,"Moderate","11. Other",150,48
"251",2018-03-01,27,"Moderate","09. Single Person Over 55",150,160
"252",2018-03-01,27,"Moderate","09. Single Person Over 55",150,160
"253",2018-03-01,27,"High","03. Single Parent, 2 Children",181,99
"254",2018-03-01,27,"Very High","09. Single Person Over 55",519,160
"255",2018-03-01,27,"High","01. Single Person",181,384
"256",2018-03-01,27,"Very High","04. Single Parent, >2 Children",519,76
"257",2018-03-01,27,"Moderate","06. Couple, 1 Child",150,3
"258",2018-03-01,27,"High","09. Single Person Over 55",181,160
"259",2018-03-01,27,"Lower","02. Single Parent, 1 Child",19,77
"260",2018-04-01,26,"Very High","11. Other",519,48
"261",2018-04-01,26,"High","01. Single Person",181,384
"262",2018-04-01,26,"Moderate","04. Single Parent, >2 Children",150,76
"263",2018-04-01,26,"Moderate","03. Single Parent, 2 Children",150,99
"264",2018-04-01,26,"Very High","01. Single Person",519,384
"265",2018-04-01,26,"Moderate","01. Single Person",150,384
"266",2018-04-01,26,"Moderate","02. Single Parent, 1 Child",150,77
"267",2018-04-01,26,"Moderate","03. Single Parent, 2 Children",150,99
"268",2018-04-01,26,"High","03. Single Parent, 2 Children",181,99
"269",2018-04-01,26,"Very High","01. Single Person",519,384
"270",2018-04-01,26,"Moderate","02. Single Parent, 1 Child",150,77
"271",2018-04-01,26,"Moderate","03. Single Parent, 2 Children",150,99
"272",2018-04-01,26,"Very High","11. Other",519,48
"273",2018-04-01,26,"Very High","03. Single Parent, 2 Children",519,99
"274",2018-04-01,26,"High","01. Single Person",181,384
"275",2018-04-01,26,"Very High","01. Single Person",519,384
"276",2018-04-01,26,"Very High","01. Single Person",519,384
"277",2018-05-01,25,"Moderate","09. Single Person Over 55",150,160
"278",2018-05-01,25,"Very High","04. Single Parent, >2 Children",519,76
"279",2018-05-01,25,"Very High","04. Single Parent, >2 Children",519,76
"280",2018-05-01,25,"Moderate","01. Single Person",150,384
"281",2018-05-01,25,"High","01. Single Person",181,384
"282",2018-05-01,25,"High","01. Single Person",181,384
"283",2018-05-01,25,"High","09. Single Person Over 55",181,160
"284",2018-05-01,25,"Lower","01. Single Person",19,384
"285",2018-05-01,25,"Lower","08. Couple, >2 Children",19,5
"286",2018-05-01,25,"High","02. Single Parent, 1 Child",181,77
"287",2018-05-01,25,"High","09. Single Person Over 55",181,160
"288",2018-05-01,25,"Lower","04. Single Parent, >2 Children",19,76
"289",2018-05-01,25,"High","04. Single Parent, >2 Children",181,76
"290",2018-05-01,25,"Moderate","09. Single Person Over 55",150,160
"291",2018-05-01,25,"Very High","01. Single Person",519,384
"292",2018-05-01,25,"Moderate","01. Single Person",150,384
"293",2018-05-01,25,"High","01. Single Person",181,384
"294",2018-05-01,25,"Very High","01. Single Person",519,384
"295",2018-05-01,25,"Very High","03. Single Parent, 2 Children",519,99
"296",2018-05-01,25,"Very High","01. Single Person",519,384
"297",2018-05-01,25,"Very High","03. Single Parent, 2 Children",519,99
"298",2018-06-01,24,"Very High","02. Single Parent, 1 Child",519,77
"299",2018-06-01,24,"Moderate","09. Single Person Over 55",150,160
"300",2018-06-01,24,"High","02. Single Parent, 1 Child",181,77
"301",2018-06-01,24,"High","03. Single Parent, 2 Children",181,99
"302",2018-06-01,24,"Very High","03. Single Parent, 2 Children",519,99
"303",2018-06-01,24,"Very High","02. Single Parent, 1 Child",519,77
"304",2018-06-01,24,"Very High","01. Single Person",519,384
"305",2018-07-01,23,"Moderate","09. Single Person Over 55",150,160
"306",2018-07-01,23,"Very High","01. Single Person",519,384
"307",2018-07-01,23,"Very High","02. Single Parent, 1 Child",519,77
"308",2018-07-01,23,"Moderate","09. Single Person Over 55",150,160
"309",2018-07-01,23,"Moderate","09. Single Person Over 55",150,160
"310",2018-07-01,23,"High","02. Single Parent, 1 Child",181,77
"311",2018-07-01,23,"Very High","03. Single Parent, 2 Children",519,99
"312",2018-07-01,22,"Moderate","09. Single Person Over 55",150,160
"313",2018-07-01,23,"Very High","01. Single Person",519,384
"314",2018-07-01,23,"High","01. Single Person",181,384
"315",2018-07-01,23,"Very High","01. Single Person",519,384
"316",2018-07-01,23,"Moderate","04. Single Parent, >2 Children",150,76
"317",2018-08-01,22,"High","09. Single Person Over 55",181,160
"318",2018-08-01,22,"High","10. Couple Only Over 55",181,7
"319",2018-08-01,22,"Very High","01. Single Person",519,384
"320",2018-08-01,22,"High","02. Single Parent, 1 Child",181,77
"321",2018-08-01,22,"High","04. Single Parent, >2 Children",181,76
"322",2018-08-01,22,"High","02. Single Parent, 1 Child",181,77
"323",2018-08-01,22,"High","04. Single Parent, >2 Children",181,76
"324",2018-08-01,22,"Very High","01. Single Person",519,384
"325",2018-08-01,22,"High","03. Single Parent, 2 Children",181,99
"326",2018-08-01,22,"Moderate","09. Single Person Over 55",150,160
"327",2018-08-01,22,"Very High","04. Single Parent, >2 Children",519,76
"328",2018-09-01,21,"Moderate","02. Single Parent, 1 Child",150,77
"329",2018-09-01,21,"Moderate","09. Single Person Over 55",150,160
"330",2018-09-01,21,"Very High","01. Single Person",519,384
"331",2018-09-01,21,"Very High","09. Single Person Over 55",519,160
"332",2018-09-01,21,"Moderate","11. Other",150,48
"333",2018-09-01,21,"High","09. Single Person Over 55",181,160
"334",2018-09-01,21,"High","01. Single Person",181,384
"335",2018-09-01,21,"High","04. Single Parent, >2 Children",181,76
"336",2018-09-01,21,"Very High","01. Single Person",519,384
"337",2018-09-01,21,"Very High","04. Single Parent, >2 Children",519,76
"338",2018-09-01,21,"Lower","03. Single Parent, 2 Children",19,99
"339",2018-09-01,21,"Very High","01. Single Person",519,384
"340",2018-10-01,20,"Very High","03. Single Parent, 2 Children",519,99
"341",2018-10-01,20,"Very High","01. Single Person",519,384
"342",2018-10-01,20,"Very High","01. Single Person",519,384
"343",2018-10-01,20,"Very High","01. Single Person",519,384
"344",2018-10-01,20,"Moderate","09. Single Person Over 55",150,160
"345",2018-10-01,20,"High","03. Single Parent, 2 Children",181,99
"346",2018-10-01,20,"High","01. Single Person",181,384
"347",2018-10-01,20,"High","03. Single Parent, 2 Children",181,99
"348",2018-10-01,20,"High","04. Single Parent, >2 Children",181,76
"349",2018-10-01,19,"Lower","03. Single Parent, 2 Children",19,99
"350",2018-10-01,20,"Very High","01. Single Person",519,384
"351",2018-10-01,20,"Very High","01. Single Person",519,384
"352",2018-10-01,20,"Very High","01. Single Person",519,384
"353",2018-10-01,20,"High","01. Single Person",181,384
"354",2018-10-01,20,"Very High","01. Single Person",519,384
"355",2018-10-01,20,"Very High","01. Single Person",519,384
"356",2018-10-01,20,"Very High","01. Single Person",519,384
"357",2018-10-01,20,"High","01. Single Person",181,384
"358",2018-10-01,20,"Very High","01. Single Person",519,384
"359",2018-10-01,20,"Very High","04. Single Parent, >2 Children",519,76
"360",2018-10-01,20,"Very High","01. Single Person",519,384
"361",2018-10-01,19,"High","09. Single Person Over 55",181,160
"362",2018-10-01,20,"Lower","09. Single Person Over 55",19,160
"363",2018-10-01,20,"Moderate","01. Single Person",150,384
"364",2018-10-01,20,"Very High","03. Single Parent, 2 Children",519,99
"365",2018-10-01,20,"Very High","01. Single Person",519,384
"366",2018-10-01,20,"Very High","01. Single Person",519,384
"367",2018-10-01,20,"Very High","01. Single Person",519,384
"368",2018-11-01,19,"High","02. Single Parent, 1 Child",181,77
"369",2018-11-01,19,"Very High","01. Single Person",519,384
"370",2018-11-01,19,"High","09. Single Person Over 55",181,160
"371",2018-11-01,19,"High","09. Single Person Over 55",181,160
"372",2018-11-01,18,"Very High","04. Single Parent, >2 Children",519,76
"373",2018-11-01,18,"Very High","01. Single Person",519,384
"374",2018-11-01,19,"Very High","02. Single Parent, 1 Child",519,77
"375",2018-11-01,19,"Very High","02. Single Parent, 1 Child",519,77
"376",2018-11-01,19,"Very High","01. Single Person",519,384
"377",2018-11-01,19,"Very High","01. Single Person",519,384
"378",2018-11-01,19,"Very High","11. Other",519,48
"379",2018-12-01,18,"Very High","01. Single Person",519,384
"380",2018-12-01,18,"Moderate","11. Other",150,48
"381",2018-12-01,18,"Very High","04. Single Parent, >2 Children",519,76
"382",2018-12-01,18,"High","02. Single Parent, 1 Child",181,77
"383",2018-12-01,18,"Very High","01. Single Person",519,384
"384",2018-12-01,18,"Moderate","11. Other",150,48
"385",2018-12-01,18,"Moderate","09. Single Person Over 55",150,160
"386",2018-12-01,18,"Very High","01. Single Person",519,384
"387",2018-12-01,18,"Very High","01. Single Person",519,384
"388",2018-12-01,18,"Very High","08. Couple, >2 Children",519,5
"389",2018-12-01,18,"Very High","01. Single Person",519,384
"390",2018-12-01,18,"Moderate","09. Single Person Over 55",150,160
"391",2018-12-01,18,"High","01. Single Person",181,384
"392",2018-12-01,18,"Very High","11. Other",519,48
"393",2018-12-01,18,"Very High","01. Single Person",519,384
"394",2018-12-01,18,"Moderate","09. Single Person Over 55",150,160
"395",2018-12-01,18,"Very High","09. Single Person Over 55",519,160
"396",2018-12-01,18,"Very High","01. Single Person",519,384
"397",2018-12-01,18,"Very High","01. Single Person",519,384
"398",2018-12-01,18,"Very High","01. Single Person",519,384
"399",2019-01-01,17,"High","09. Single Person Over 55",181,160
"400",2019-01-01,17,"Very High","11. Other",519,48
"401",2019-01-01,17,"Very High","11. Other",519,48
"402",2019-01-01,17,"Very High","01. Single Person",519,384
"403",2019-01-01,17,"Moderate","09. Single Person Over 55",150,160
"404",2019-01-01,17,"High","01. Single Person",181,384
"405",2019-01-01,17,"High","09. Single Person Over 55",181,160
"406",2019-01-01,17,"Very High","01. Single Person",519,384
"407",2019-01-01,17,"Very High","09. Single Person Over 55",519,160
"408",2019-01-01,17,"Very High","03. Single Parent, 2 Children",519,99
"409",2019-01-01,17,"Very High","03. Single Parent, 2 Children",519,99
"410",2019-01-01,17,"Very High","01. Single Person",519,384
"411",2019-01-01,17,"Moderate","01. Single Person",150,384
"412",2019-01-01,17,"Very High","03. Single Parent, 2 Children",519,99
"413",2019-01-01,16,"Moderate","09. Single Person Over 55",150,160
"414",2019-01-01,17,"Very High","01. Single Person",519,384
"415",2019-01-01,17,"Moderate","09. Single Person Over 55",150,160
"416",2019-01-01,17,"Very High","03. Single Parent, 2 Children",519,99
"417",2019-01-01,17,"Moderate","02. Single Parent, 1 Child",150,77
"418",2019-01-01,17,"Very High","01. Single Person",519,384
"419",2019-01-01,17,"Very High","01. Single Person",519,384
"420",2019-01-01,17,"Very High","01. Single Person",519,384
"421",2019-02-01,16,"Very High","01. Single Person",519,384
"422",2019-02-01,16,"High","09. Single Person Over 55",181,160
"423",2019-02-01,16,"Very High","04. Single Parent, >2 Children",519,76
"424",2019-02-01,16,"Moderate","09. Single Person Over 55",150,160
"425",2019-02-01,16,"Very High","03. Single Parent, 2 Children",519,99
"426",2019-02-01,16,"High","09. Single Person Over 55",181,160
"427",2019-02-01,16,"High","01. Single Person",181,384
"428",2019-02-01,16,"High","01. Single Person",181,384
"429",2019-02-01,16,"Very High","09. Single Person Over 55",519,160
"430",2019-02-01,16,"High","04. Single Parent, >2 Children",181,76
"431",2019-02-01,16,"High","04. Single Parent, >2 Children",181,76
"432",2019-02-01,16,"Very High","01. Single Person",519,384
"433",2019-02-01,16,"High","01. Single Person",181,384
"434",2019-02-01,16,"High","01. Single Person",181,384
"435",2019-02-01,16,"High","11. Other",181,48
"436",2019-02-01,16,"High","01. Single Person",181,384
"437",2019-02-01,16,"High","09. Single Person Over 55",181,160
"438",2019-02-01,16,"Very High","01. Single Person",519,384
"439",2019-02-01,16,"Very High","02. Single Parent, 1 Child",519,77
"440",2019-02-01,16,"Very High","03. Single Parent, 2 Children",519,99
"441",2019-02-01,16,"Moderate","03. Single Parent, 2 Children",150,99
"442",2019-02-01,16,"Moderate","01. Single Person",150,384
"443",2019-02-01,16,"Very High","03. Single Parent, 2 Children",519,99
"444",2019-02-01,16,"Moderate","09. Single Person Over 55",150,160
"445",2019-02-01,16,"Moderate","03. Single Parent, 2 Children",150,99
"446",2019-02-01,16,"High","01. Single Person",181,384
"447",2019-02-01,16,"Very High","02. Single Parent, 1 Child",519,77
"448",2019-02-01,16,"High","01. Single Person",181,384
"449",2019-02-01,16,"Very High","09. Single Person Over 55",519,160
"450",2019-02-01,16,"High","11. Other",181,48
"451",2019-02-01,16,"Very High","02. Single Parent, 1 Child",519,77
"452",2019-02-01,16,"Lower","03. Single Parent, 2 Children",19,99
"453",2019-02-01,16,"Very High","04. Single Parent, >2 Children",519,76
"454",2019-02-01,16,"Very High","01. Single Person",519,384
"455",2019-02-01,16,"Very High","01. Single Person",519,384
"456",2019-03-01,15,"Very High","01. Single Person",519,384
"457",2019-03-01,15,"Very High","03. Single Parent, 2 Children",519,99
"458",2019-03-01,15,"Moderate","01. Single Person",150,384
"459",2019-03-01,15,"Very High","01. Single Person",519,384
"460",2019-03-01,15,"High","03. Single Parent, 2 Children",181,99
"461",2019-03-01,15,"Very High","02. Single Parent, 1 Child",519,77
"462",2019-03-01,15,"Very High","01. Single Person",519,384
"463",2019-03-01,15,"High","01. Single Person",181,384
"464",2019-03-01,15,"High","04. Single Parent, >2 Children",181,76
"465",2019-03-01,15,"Very High","03. Single Parent, 2 Children",519,99
"466",2019-03-01,15,"Very High","09. Single Person Over 55",519,160
"467",2019-03-01,15,"Very High","01. Single Person",519,384
"468",2019-03-01,16,"Very High","04. Single Parent, >2 Children",519,76
"469",2019-03-01,15,"Very High","01. Single Person",519,384
"470",2019-03-01,15,"Very High","01. Single Person",519,384
"471",2019-03-01,15,"Very High","01. Single Person",519,384
"472",2019-03-01,15,"Very High","01. Single Person",519,384
"473",2019-03-01,15,"Very High","01. Single Person",519,384
"474",2019-03-01,15,"Very High","01. Single Person",519,384
"475",2019-03-01,15,"Moderate","01. Single Person",150,384
"476",2019-03-01,15,"Very High","01. Single Person",519,384
"477",2019-03-01,15,"Very High","01. Single Person",519,384
"478",2019-03-01,15,"Very High","01. Single Person",519,384
"479",2019-03-01,15,"Very High","01. Single Person",519,384
"480",2019-03-01,15,"Very High","01. Single Person",519,384
"481",2019-03-01,15,"Very High","11. Other",519,48
"482",2019-03-01,15,"Very High","01. Single Person",519,384
"483",2019-03-01,15,"Very High","01. Single Person",519,384
"484",2019-04-01,14,"Very High","01. Single Person",519,384
"485",2019-04-01,14,"Very High","11. Other",519,48
"486",2019-04-01,14,"Very High","01. Single Person",519,384
"487",2019-04-01,14,"Moderate","02. Single Parent, 1 Child",150,77
"488",2019-04-01,14,"High","03. Single Parent, 2 Children",181,99
"489",2019-04-01,14,"Very High","01. Single Person",519,384
"490",2019-04-01,14,"Moderate","03. Single Parent, 2 Children",150,99
"491",2019-04-01,14,"High","09. Single Person Over 55",181,160
"492",2019-04-01,14,"Very High","06. Couple, 1 Child",519,3
"493",2019-04-01,14,"High","09. Single Person Over 55",181,160
"494",2019-04-01,14,"High","01. Single Person",181,384
"495",2019-04-01,14,"Moderate","09. Single Person Over 55",150,160
"496",2019-04-01,14,"Very High","01. Single Person",519,384
"497",2019-04-01,14,"Moderate","09. Single Person Over 55",150,160
"498",2019-04-01,14,"High","03. Single Parent, 2 Children",181,99
"499",2019-04-01,14,"Very High","01. Single Person",519,384
"500",2019-04-01,14,"Very High","01. Single Person",519,384
"501",2019-04-01,14,"Very High","03. Single Parent, 2 Children",519,99
"502",2019-04-01,14,"High","09. Single Person Over 55",181,160
"503",2019-04-01,14,"Very High","03. Single Parent, 2 Children",519,99
"504",2019-04-01,14,"Moderate","02. Single Parent, 1 Child",150,77
"505",2019-05-01,13,"High","01. Single Person",181,384
"506",2019-05-01,13,"Moderate","03. Single Parent, 2 Children",150,99
"507",2019-05-01,13,"Very High","01. Single Person",519,384
"508",2019-05-01,13,"High","04. Single Parent, >2 Children",181,76
"509",2019-05-01,13,"Moderate","02. Single Parent, 1 Child",150,77
"510",2019-05-01,13,"Very High","03. Single Parent, 2 Children",519,99
"511",2019-05-01,13,"High","02. Single Parent, 1 Child",181,77
"512",2019-05-01,13,"Very High","02. Single Parent, 1 Child",519,77
"513",2019-05-01,13,"Very High","03. Single Parent, 2 Children",519,99
"514",2019-05-01,13,"Very High","01. Single Person",519,384
"515",2019-05-01,13,"High","09. Single Person Over 55",181,160
"516",2019-05-01,13,"Very High","05. Couple Only",519,4
"517",2019-05-01,13,"Very High","03. Single Parent, 2 Children",519,99
"518",2019-05-01,13,"Very High","01. Single Person",519,384
"519",2019-05-01,13,"Very High","01. Single Person",519,384
"520",2019-05-01,13,"Lower","09. Single Person Over 55",19,160
"521",2019-05-01,13,"Very High","01. Single Person",519,384
"522",2019-05-01,13,"Very High","01. Single Person",519,384
"523",2019-05-01,13,"Very High","01. Single Person",519,384
"524",2019-05-01,13,"Very High","01. Single Person",519,384
"525",2019-05-01,13,"Moderate","09. Single Person Over 55",150,160
"526",2019-05-01,13,"Very High","04. Single Parent, >2 Children",519,76
"527",2019-05-01,13,"Moderate","02. Single Parent, 1 Child",150,77
"528",2019-05-01,13,"Very High","09. Single Person Over 55",519,160
"529",2019-05-01,13,"Very High","01. Single Person",519,384
"530",2019-05-01,13,"Very High","01. Single Person",519,384
"531",2019-06-01,12,"Moderate","09. Single Person Over 55",150,160
"532",2019-06-01,12,"High","11. Other",181,48
"533",2019-06-01,12,"Moderate","09. Single Person Over 55",150,160
"534",2019-06-01,12,"Very High","04. Single Parent, >2 Children",519,76
"535",2019-06-01,12,"Very High","03. Single Parent, 2 Children",519,99
"536",2019-06-01,12,"Very High","01. Single Person",519,384
"537",2019-06-01,12,"Very High","01. Single Person",519,384
"538",2019-06-01,12,"High","09. Single Person Over 55",181,160
"539",2019-06-01,12,"Very High","01. Single Person",519,384
"540",2019-06-01,12,"Moderate","09. Single Person Over 55",150,160
"541",2019-06-01,12,"Very High","04. Single Parent, >2 Children",519,76
"542",2019-06-01,12,"High","01. Single Person",181,384
"543",2019-06-01,12,"High","01. Single Person",181,384
"544",2019-06-01,12,"Very High","04. Single Parent, >2 Children",519,76
"545",2019-06-01,12,"Very High","04. Single Parent, >2 Children",519,76
"546",2019-06-01,12,"Very High","01. Single Person",519,384
"547",2019-06-01,12,"Very High","04. Single Parent, >2 Children",519,76
"548",2019-06-01,12,"Very High","04. Single Parent, >2 Children",519,76
"549",2019-06-01,12,"Very High","04. Single Parent, >2 Children",519,76
"550",2019-06-01,12,"Very High","02. Single Parent, 1 Child",519,77
"551",2019-06-01,12,"Very High","01. Single Person",519,384
"552",2019-06-01,12,"Very High","01. Single Person",519,384
"553",2019-06-01,12,"High","01. Single Person",181,384
"554",2019-06-01,12,"Very High","01. Single Person",519,384
"555",2019-06-01,12,"Very High","01. Single Person",519,384
"556",2019-06-01,12,"Very High","02. Single Parent, 1 Child",519,77
"557",2019-06-01,12,"Very High","01. Single Person",519,384
"558",2019-06-01,12,"Lower","09. Single Person Over 55",19,160
"559",2019-06-01,12,"Very High","01. Single Person",519,384
"560",2019-06-01,12,"Very High","01. Single Person",519,384
"561",2019-06-01,12,"High","01. Single Person",181,384
"562",2019-06-01,12,"Very High","01. Single Person",519,384
"563",2019-06-01,12,"High","09. Single Person Over 55",181,160
"564",2019-06-01,12,"Very High","01. Single Person",519,384
"565",2019-06-01,12,"Very High","09. Single Person Over 55",519,160
"566",2019-06-01,12,"Moderate","11. Other",150,48
"567",2019-06-01,12,"Very High","01. Single Person",519,384
"568",2019-07-01,11,"Very High","01. Single Person",519,384
"569",2019-07-01,11,"High","09. Single Person Over 55",181,160
"570",2019-07-01,11,"Very High","01. Single Person",519,384
"571",2019-07-01,11,"Very High","09. Single Person Over 55",519,160
"572",2019-07-01,11,"Very High","01. Single Person",519,384
"573",2019-07-01,11,"Moderate","09. Single Person Over 55",150,160
"574",2019-07-01,11,"High","01. Single Person",181,384
"575",2019-07-01,11,"Very High","01. Single Person",519,384
"576",2019-07-01,11,"Very High","03. Single Parent, 2 Children",519,99
"577",2019-07-01,11,"Very High","01. Single Person",519,384
"578",2019-07-01,11,"High","01. Single Person",181,384
"579",2019-07-01,11,"Very High","01. Single Person",519,384
"580",2019-07-01,11,"Moderate","09. Single Person Over 55",150,160
"581",2019-07-01,11,"Very High","01. Single Person",519,384
"582",2019-07-01,11,"Moderate","11. Other",150,48
"583",2019-07-01,11,"Very High","01. Single Person",519,384
"584",2019-07-01,11,"Very High","01. Single Person",519,384
"585",2019-07-01,11,"Very High","01. Single Person",519,384
"586",2019-07-01,11,"Very High","01. Single Person",519,384
"587",2019-07-01,11,"Very High","01. Single Person",519,384
"588",2019-07-01,11,"Moderate","02. Single Parent, 1 Child",150,77
"589",2019-07-01,11,"Moderate","09. Single Person Over 55",150,160
"590",2019-07-01,11,"Very High","01. Single Person",519,384
"591",2019-07-01,11,"Very High","11. Other",519,48
"592",2019-07-01,11,"Very High","01. Single Person",519,384
"593",2019-07-01,11,"Very High","04. Single Parent, >2 Children",519,76
"594",2019-07-01,11,"Moderate","09. Single Person Over 55",150,160
"595",2019-07-01,11,"Very High","04. Single Parent, >2 Children",519,76
"596",2019-07-01,11,"High","03. Single Parent, 2 Children",181,99
"597",2019-07-01,11,"Very High","03. Single Parent, 2 Children",519,99
"598",2019-07-01,11,"Moderate","01. Single Person",150,384
"599",2019-07-01,11,"Moderate","09. Single Person Over 55",150,160
"600",2019-07-01,11,"Very High","01. Single Person",519,384
"601",2019-07-01,11,"Very High","01. Single Person",519,384
"602",2019-08-01,10,"Very High","01. Single Person",519,384
"603",2019-08-01,10,"High","10. Couple Only Over 55",181,7
"604",2019-08-01,10,"Very High","04. Single Parent, >2 Children",519,76
"605",2019-08-01,10,"Very High","09. Single Person Over 55",519,160
"606",2019-08-01,10,"Very High","01. Single Person",519,384
"607",2019-08-01,10,"High","01. Single Person",181,384
"608",2019-08-01,10,"High","09. Single Person Over 55",181,160
"609",2019-08-01,10,"Very High","01. Single Person",519,384
"610",2019-08-01,10,"Moderate","09. Single Person Over 55",150,160
"611",2019-08-01,10,"High","09. Single Person Over 55",181,160
"612",2019-08-01,10,"High","03. Single Parent, 2 Children",181,99
"613",2019-08-01,10,"Moderate","09. Single Person Over 55",150,160
"614",2019-08-01,10,"Very High","01. Single Person",519,384
"615",2019-08-01,10,"Very High","01. Single Person",519,384
"616",2019-08-01,10,"High","09. Single Person Over 55",181,160
"617",2019-08-01,10,"Moderate","01. Single Person",150,384
"618",2019-08-01,10,"Very High","01. Single Person",519,384
"619",2019-08-01,10,"Very High","01. Single Person",519,384
"620",2019-08-01,10,"Moderate","03. Single Parent, 2 Children",150,99
"621",2019-08-01,10,"High","09. Single Person Over 55",181,160
"622",2019-08-01,10,"Very High","01. Single Person",519,384
"623",2019-08-01,10,"Very High","09. Single Person Over 55",519,160
"624",2019-08-01,10,"Very High","01. Single Person",519,384
"625",2019-08-01,10,"High","01. Single Person",181,384
"626",2019-08-01,10,"Very High","01. Single Person",519,384
"627",2019-08-01,10,"Very High","01. Single Person",519,384
"628",2019-08-01,10,"Moderate","09. Single Person Over 55",150,160
"629",2019-08-01,10,"Very High","01. Single Person",519,384
"630",2019-08-01,10,"Very High","01. Single Person",519,384
"631",2019-08-01,10,"Very High","01. Single Person",519,384
"632",2019-08-01,10,"Very High","01. Single Person",519,384
"633",2019-08-01,10,"Very High","04. Single Parent, >2 Children",519,76
"634",2019-08-01,10,"High","09. Single Person Over 55",181,160
"635",2019-08-01,10,"High","04. Single Parent, >2 Children",181,76
"636",2019-08-01,10,"Moderate","09. Single Person Over 55",150,160
"637",2019-09-01,9,"Very High","01. Single Person",519,384
"638",2019-09-01,9,"Very High","01. Single Person",519,384
"639",2019-09-01,9,"Very High","03. Single Parent, 2 Children",519,99
"640",2019-09-01,9,"High","09. Single Person Over 55",181,160
"641",2019-09-01,9,"High","01. Single Person",181,384
"642",2019-09-01,9,"Very High","01. Single Person",519,384
"643",2019-09-01,9,"Very High","01. Single Person",519,384
"644",2019-09-01,9,"Very High","01. Single Person",519,384
"645",2019-09-01,9,"Moderate","09. Single Person Over 55",150,160
"646",2019-09-01,9,"Very High","04. Single Parent, >2 Children",519,76
"647",2019-09-01,9,"Very High","01. Single Person",519,384
"648",2019-09-01,9,"High","01. Single Person",181,384
"649",2019-09-01,9,"Very High","01. Single Person",519,384
"650",2019-09-01,9,"Very High","01. Single Person",519,384
"651",2019-09-01,9,"Very High","03. Single Parent, 2 Children",519,99
"652",2019-09-01,9,"Very High","01. Single Person",519,384
"653",2019-09-01,9,"Very High","01. Single Person",519,384
"654",2019-09-01,9,"Very High","01. Single Person",519,384
"655",2019-09-01,9,"Very High","01. Single Person",519,384
"656",2019-09-01,9,"Very High","01. Single Person",519,384
"657",2019-09-01,9,"Very High","02. Single Parent, 1 Child",519,77
"658",2019-09-01,9,"Very High","03. Single Parent, 2 Children",519,99
"659",2019-09-01,9,"Moderate","03. Single Parent, 2 Children",150,99
"660",2019-09-01,9,"Very High","01. Single Person",519,384
"661",2019-09-01,9,"Very High","04. Single Parent, >2 Children",519,76
"662",2019-10-01,8,"Moderate","09. Single Person Over 55",150,160
"663",2019-10-01,8,"High","09. Single Person Over 55",181,160
"664",2019-10-01,8,"Very High","01. Single Person",519,384
"665",2019-10-01,8,"Very High","02. Single Parent, 1 Child",519,77
"666",2019-10-01,8,"Very High","04. Single Parent, >2 Children",519,76
"667",2019-10-01,8,"Very High","01. Single Person",519,384
"668",2019-10-01,8,"Very High","02. Single Parent, 1 Child",519,77
"669",2019-10-01,8,"Very High","07. Couple, 2 Children",519,6
"670",2019-10-01,8,"Very High","01. Single Person",519,384
"671",2019-10-01,8,"Moderate","01. Single Person",150,384
"672",2019-10-01,8,"High","01. Single Person",181,384
"673",2019-10-01,8,"Very High","01. Single Person",519,384
"674",2019-10-01,8,"Very High","01. Single Person",519,384
"675",2019-10-01,8,"Very High","02. Single Parent, 1 Child",519,77
"676",2019-10-01,8,"Very High","01. Single Person",519,384
"677",2019-10-01,8,"Moderate","01. Single Person",150,384
"678",2019-10-01,8,"Very High","01. Single Person",519,384
"679",2019-10-01,8,"High","03. Single Parent, 2 Children",181,99
"680",2019-10-01,8,"Very High","01. Single Person",519,384
"681",2019-10-01,8,"Very High","01. Single Person",519,384
"682",2019-10-01,8,"Moderate","01. Single Person",150,384
"683",2019-10-01,8,"Very High","03. Single Parent, 2 Children",519,99
"684",2019-10-01,8,"Very High","01. Single Person",519,384
"685",2019-10-01,8,"Very High","01. Single Person",519,384
"686",2019-10-01,8,"Very High","03. Single Parent, 2 Children",519,99
"687",2019-10-01,8,"Very High","01. Single Person",519,384
"688",2019-10-01,8,"Very High","02. Single Parent, 1 Child",519,77
"689",2019-10-01,8,"Very High","01. Single Person",519,384
"690",2019-10-01,8,"Very High","04. Single Parent, >2 Children",519,76
"691",2019-10-01,8,"Very High","01. Single Person",519,384
"692",2019-10-01,8,"Very High","01. Single Person",519,384
"693",2019-10-01,8,"Very High","03. Single Parent, 2 Children",519,99
"694",2019-10-01,8,"Very High","02. Single Parent, 1 Child",519,77
"695",2019-10-01,8,"Very High","01. Single Person",519,384
"696",2019-10-01,8,"Very High","01. Single Person",519,384
"697",2019-10-01,8,"Very High","11. Other",519,48
"698",2019-11-01,7,"Very High","01. Single Person",519,384
"699",2019-11-01,7,"Very High","01. Single Person",519,384
"700",2019-11-01,7,"Very High","01. Single Person",519,384
"701",2019-11-01,7,"Very High","01. Single Person",519,384
"702",2019-11-01,7,"Very High","01. Single Person",519,384
"703",2019-11-01,7,"Very High","01. Single Person",519,384
"704",2019-11-01,7,"Very High","02. Single Parent, 1 Child",519,77
"705",2019-11-01,7,"Very High","09. Single Person Over 55",519,160
"706",2019-11-01,7,"Very High","06. Couple, 1 Child",519,3
"707",2019-11-01,7,"Very High","04. Single Parent, >2 Children",519,76
"708",2019-11-01,7,"Very High","09. Single Person Over 55",519,160
"709",2019-11-01,7,"Very High","01. Single Person",519,384
"710",2019-11-01,7,"Very High","01. Single Person",519,384
"711",2019-11-01,7,"Very High","02. Single Parent, 1 Child",519,77
"712",2019-11-01,7,"Very High","02. Single Parent, 1 Child",519,77
"713",2019-11-01,7,"Very High","09. Single Person Over 55",519,160
"714",2019-11-01,7,"Very High","09. Single Person Over 55",519,160
"715",2019-11-01,7,"Very High","09. Single Person Over 55",519,160
"716",2019-11-01,7,"Very High","03. Single Parent, 2 Children",519,99
"717",2019-11-01,7,"Very High","01. Single Person",519,384
"718",2019-11-01,7,"Very High","01. Single Person",519,384
"719",2019-11-01,7,"Very High","01. Single Person",519,384
"720",2019-11-01,7,"Very High","01. Single Person",519,384
"721",2019-11-01,7,"Very High","09. Single Person Over 55",519,160
"722",2019-12-01,6,"Very High","01. Single Person",519,384
"723",2019-12-01,6,"Very High","09. Single Person Over 55",519,160
"724",2019-12-01,6,"Very High","01. Single Person",519,384
"725",2019-12-01,6,"Very High","01. Single Person",519,384
"726",2019-12-01,6,"Very High","01. Single Person",519,384
"727",2019-12-01,6,"Very High","01. Single Person",519,384
"728",2019-12-01,6,"Very High","10. Couple Only Over 55",519,7
"729",2019-12-01,6,"Very High","09. Single Person Over 55",519,160
"730",2019-12-01,6,"Very High","01. Single Person",519,384
"731",2019-12-01,6,"Very High","01. Single Person",519,384
"732",2019-12-01,6,"Very High","09. Single Person Over 55",519,160
"733",2019-12-01,6,"Very High","01. Single Person",519,384
"734",2019-12-01,6,"Very High","09. Single Person Over 55",519,160
"735",2019-12-01,6,"Very High","03. Single Parent, 2 Children",519,99
"736",2019-12-01,6,"Very High","01. Single Person",519,384
"737",2020-01-01,5,"Very High","01. Single Person",519,384
"738",2020-01-01,5,"Very High","03. Single Parent, 2 Children",519,99
"739",2020-01-01,5,"Very High","04. Single Parent, >2 Children",519,76
"740",2020-01-01,5,"Very High","09. Single Person Over 55",519,160
"741",2020-01-01,5,"Very High","01. Single Person",519,384
"742",2020-01-01,5,"Very High","03. Single Parent, 2 Children",519,99
"743",2020-01-01,5,"Very High","02. Single Parent, 1 Child",519,77
"744",2020-01-01,5,"Very High","01. Single Person",519,384
"745",2020-01-01,5,"Very High","01. Single Person",519,384
"746",2020-01-01,5,"Very High","01. Single Person",519,384
"747",2020-01-01,5,"Very High","05. Couple Only",519,4
"748",2020-01-01,5,"Very High","09. Single Person Over 55",519,160
"749",2020-01-01,5,"Very High","01. Single Person",519,384
"750",2020-01-01,5,"Very High","02. Single Parent, 1 Child",519,77
"751",2020-01-01,5,"Very High","01. Single Person",519,384
"752",2020-01-01,5,"Very High","01. Single Person",519,384
"753",2020-01-01,5,"Very High","01. Single Person",519,384
"754",2020-01-01,5,"Very High","03. Single Parent, 2 Children",519,99
"755",2020-01-01,5,"Very High","02. Single Parent, 1 Child",519,77
"756",2020-01-01,5,"Very High","09. Single Person Over 55",519,160
"757",2020-01-01,5,"Very High","01. Single Person",519,384
"758",2020-01-01,5,"Very High","01. Single Person",519,384
"759",2020-01-01,5,"Very High","01. Single Person",519,384
"760",2020-01-01,5,"Very High","01. Single Person",519,384
"761",2020-01-01,5,"Very High","04. Single Parent, >2 Children",519,76
"762",2020-01-01,5,"Very High","01. Single Person",519,384
"763",2020-01-01,5,"Very High","01. Single Person",519,384
"764",2020-01-01,5,"Very High","09. Single Person Over 55",519,160
"765",2020-01-01,5,"Very High","01. Single Person",519,384
"766",2020-01-01,5,"Very High","04. Single Parent, >2 Children",519,76
"767",2020-02-01,4,"Very High","03. Single Parent, 2 Children",519,99
"768",2020-02-01,4,"Very High","03. Single Parent, 2 Children",519,99
"769",2020-02-01,4,"Very High","09. Single Person Over 55",519,160
"770",2020-02-01,4,"Very High","08. Couple, >2 Children",519,5
"771",2020-02-01,4,"Very High","01. Single Person",519,384
"772",2020-02-01,4,"Very High","09. Single Person Over 55",519,160
"773",2020-02-01,4,"Very High","03. Single Parent, 2 Children",519,99
"774",2020-02-01,4,"Very High","02. Single Parent, 1 Child",519,77
"775",2020-02-01,4,"Very High","01. Single Person",519,384
"776",2020-02-01,4,"Very High","01. Single Person",519,384
"777",2020-02-01,4,"Very High","01. Single Person",519,384
"778",2020-02-01,4,"Very High","02. Single Parent, 1 Child",519,77
"779",2020-02-01,4,"Very High","02. Single Parent, 1 Child",519,77
"780",2020-02-01,4,"Very High","01. Single Person",519,384
"781",2020-02-01,4,"Very High","01. Single Person",519,384
"782",2020-02-01,4,"Very High","01. Single Person",519,384
"783",2020-03-01,3,"High","01. Single Person",181,384
"784",2020-03-01,3,"Very High","03. Single Parent, 2 Children",519,99
"785",2020-03-01,3,"Very High","04. Single Parent, >2 Children",519,76
"786",2020-03-01,3,"Very High","04. Single Parent, >2 Children",519,76
"787",2020-03-01,3,"Very High","01. Single Person",519,384
"788",2020-03-01,3,"Very High","01. Single Person",519,384
"789",2020-03-01,3,"Very High","01. Single Person",519,384
"790",2020-03-01,3,"Very High","05. Couple Only",519,4
"791",2020-03-01,3,"Very High","01. Single Person",519,384
"792",2020-03-01,3,"Very High","03. Single Parent, 2 Children",519,99
"793",2020-03-01,3,"Very High","03. Single Parent, 2 Children",519,99
"794",2020-03-01,3,"Very High","01. Single Person",519,384
"795",2020-03-01,3,"Very High","04. Single Parent, >2 Children",519,76
"796",2020-03-01,3,"Very High","01. Single Person",519,384
"797",2020-03-01,3,"Very High","02. Single Parent, 1 Child",519,77
"798",2020-03-01,3,"Very High","04. Single Parent, >2 Children",519,76
"799",2020-03-01,3,"Very High","01. Single Person",519,384
"800",2020-03-01,3,"Very High","04. Single Parent, >2 Children",519,76
"801",2020-03-01,3,"Very High","09. Single Person Over 55",519,160
"802",2020-03-01,3,"Very High","07. Couple, 2 Children",519,6
"803",2020-03-01,3,"Very High","03. Single Parent, 2 Children",519,99
"804",2020-03-01,3,"Very High","02. Single Parent, 1 Child",519,77
"805",2020-03-01,3,"Very High","01. Single Person",519,384
"806",2020-03-01,3,"Very High","01. Single Person",519,384
"807",2020-03-01,3,"Very High","01. Single Person",519,384
"808",2020-03-01,3,"Very High","09. Single Person Over 55",519,160
"809",2020-03-01,3,"Very High","01. Single Person",519,384
"810",2020-03-01,3,"Very High","01. Single Person",519,384
"811",2020-03-01,3,"Very High","02. Single Parent, 1 Child",519,77
"812",2020-03-01,3,"Very High","04. Single Parent, >2 Children",519,76
"813",2020-03-01,3,"Very High","01. Single Person",519,384
"814",2020-04-01,2,"Very High","01. Single Person",519,384
"815",2020-04-01,2,"Very High","07. Couple, 2 Children",519,6
"816",2020-04-01,2,"Very High","05. Couple Only",519,4
"817",2020-04-01,2,"Very High","09. Single Person Over 55",519,160
"818",2020-04-01,2,"Very High","01. Single Person",519,384
"819",2020-04-01,2,"Very High","01. Single Person",519,384
"820",2020-04-01,2,"Very High","04. Single Parent, >2 Children",519,76
"821",2020-04-01,2,"Very High","01. Single Person",519,384
"822",2020-04-01,2,"Very High","09. Single Person Over 55",519,160
"823",2020-04-01,2,"Very High","02. Single Parent, 1 Child",519,77
"824",2020-05-01,1,"Very High","01. Single Person",519,384
"825",2020-05-01,1,"Very High","09. Single Person Over 55",519,160
"826",2020-05-01,1,"Very High","03. Single Parent, 2 Children",519,99
"827",2020-05-01,1,"High","01. Single Person",181,384
"828",2020-05-01,1,"Very High","03. Single Parent, 2 Children",519,99
"829",2020-05-01,1,"Very High","03. Single Parent, 2 Children",519,99
"830",2020-05-01,1,"Very High","01. Single Person",519,384
"831",2020-05-01,1,"Very High","09. Single Person Over 55",519,160
"832",2020-05-01,1,"Very High","09. Single Person Over 55",519,160
"833",2020-05-01,1,"Very High","02. Single Parent, 1 Child",519,77
"834",2020-05-01,1,"Very High","01. Single Person",519,384
"835",2020-05-01,1,"Very High","01. Single Person",519,384
"836",2020-05-01,1,"Very High","04. Single Parent, >2 Children",519,76
"837",2020-05-01,1,"Very High","08. Couple, >2 Children",519,5
"838",2020-05-01,1,"Very High","01. Single Person",519,384
"839",2020-05-01,1,"Very High","09. Single Person Over 55",519,160
"840",2020-05-01,1,"Very High","04. Single Parent, >2 Children",519,76
"841",2020-05-01,1,"Very High","01. Single Person",519,384
"842",2020-05-01,1,"Very High","09. Single Person Over 55",519,160
"843",2020-06-01,0,"Very High","01. Single Person",519,384
"844",2020-06-01,0,"Very High","09. Single Person Over 55",519,160
"845",2020-06-01,0,"Very High","09. Single Person Over 55",519,160
"846",2020-06-01,0,"Very High","09. Single Person Over 55",519,160
"847",2020-06-01,0,"Very High","03. Single Parent, 2 Children",519,99
"848",2020-06-01,0,"Very High","01. Single Person",519,384
"849",2020-06-01,0,"Very High","02. Single Parent, 1 Child",519,77
"850",2020-06-01,0,"Very High","11. Other",519,48
"851",2020-06-01,0,"Very High","01. Single Person",519,384
"852",2020-06-01,0,"Very High","03. Single Parent, 2 Children",519,99
"853",2020-06-01,0,"Very High","09. Single Person Over 55",519,160
"854",2020-06-01,0,"Very High","02. Single Parent, 1 Child",519,77
"855",2020-06-01,0,"Very High","10. Couple Only Over 55",519,7
"856",2020-06-01,0,"Very High","02. Single Parent, 1 Child",519,77
"857",2020-06-01,0,"Very High","09. Single Person Over 55",519,160
"858",2020-06-01,0,"Very High","09. Single Person Over 55",519,160
"859",2020-06-01,0,"Very High","04. Single Parent, >2 Children",519,76
"860",2020-06-01,0,"Very High","02. Single Parent, 1 Child",519,77
"861",2020-06-01,0,"Very High","09. Single Person Over 55",519,160
"862",2020-06-01,0,"Very High","01. Single Person",519,384
"863",2020-06-01,0,"Very High","09. Single Person Over 55",519,160
"864",2020-06-01,0,"Very High","01. Single Person",519,384
"865",2020-06-01,0,"Very High","09. Single Person Over 55",519,160
"866",2020-06-01,0,"Very High","01. Single Person",519,384
"867",2020-06-01,0,"Very High","02. Single Parent, 1 Child",519,77
"868",2020-06-01,0,"Very High","01. Single Person",519,384
"869",2020-06-01,0,"Very High","01. Single Person",519,384
